---
http_interactions:
- request:
    method: get
    uri: http://localhost:8080/events?limit=50&page=0
    body:
      encoding: US-ASCII
      string: ''
    headers:
      Accept:
      - "*/*"
      User-Agent:
      - rest-client/2.1.0 (darwin20.3.0 x86_64) ruby/2.7.2p137
      Content-Length:
      - '0'
      Content-Type:
      - application/x-www-form-urlencoded
      Accept-Encoding:
      - gzip;q=1.0,deflate;q=0.6,identity;q=0.3
      Host:
      - localhost:8080
  response:
    status:
      code: 200
      message: OK
    headers:
      Content-Type:
      - application/json; charset=utf-8
      Date:
      - Thu, 01 Apr 2021 21:53:15 GMT
      Transfer-Encoding:
      - chunked
    body:
      encoding: UTF-8
      string: '{"page":1,"pages":13,"limit":50,"count":609,"records":[{"id":638,"scope":"staking","action":"kicked","block_height":33623453,"block_time":"2021-04-01T10:27:58.236287Z","epoch":"6RVhSB8k1XY9gjcz2HKRmtNZGBL4hSfJgAUErDLhj36Y","item_id":"jubi.poolv1.near","item_type":"validator","metadata":{"reason":"not_enough_stake","stake":"3269692473285824010059790845048","threshold":"3323876681154424075084839594861"},"created_at":"2021-04-01T10:29:01.783183Z"},{"id":637,"scope":"staking","action":"joined_active_set","block_height":32673053,"block_time":"2021-03-21T06:06:33.642452Z","epoch":"8qAo5EeMHw5FbMB7FmzHxHFURLFcFYZfCpXyaC4WKvAS","item_id":"cryptium.poolv1.near","item_type":"validator","metadata":{"stake":"5202904961161780424079848996578"},"created_at":"2021-03-21T06:07:47.96534Z"},{"id":636,"scope":"staking","action":"left_active_set","block_height":32629853,"block_time":"2021-03-20T18:06:14.827125Z","epoch":"GqNVenthXHPYyckHubkQqUAhgMjzkE6cVZWjpTpKjxXp","item_id":"cryptium.poolv1.near","item_type":"validator","metadata":{"stake":"5206896230825561493189557807483"},"created_at":"2021-03-20T18:07:28.224077Z"},{"id":635,"scope":"staking","action":"kicked","block_height":32586653,"block_time":"2021-03-20T06:02:37.704616Z","epoch":"2owqHtKgR4WEzhhFt1Hw9ukzdDFbGByLe1RDbkwDfSYQ","item_id":"cryptium.poolv1.near","item_type":"validator","metadata":{"expected":432,"produced":165,"reason":"not_enough_blocks"},"created_at":"2021-03-20T06:03:53.188807Z"},{"id":634,"scope":"staking","action":"joined_active_set","block_height":32543453,"block_time":"2021-03-19T17:10:42.541893Z","epoch":"A6hJ1rVmTQqzdmk1nmJwrqnA8EZUHQR6eYgJ7BcUddQ1","item_id":"jazza.poolv1.near","item_type":"validator","metadata":{"stake":"3426331201255886939087308840664"},"created_at":"2021-03-19T17:11:55.331509Z"},{"id":633,"scope":"staking","action":"joined_active_set","block_height":32543453,"block_time":"2021-03-19T17:10:42.541893Z","epoch":"A6hJ1rVmTQqzdmk1nmJwrqnA8EZUHQR6eYgJ7BcUddQ1","item_id":"cryptium.poolv1.near","item_type":"validator","metadata":{"stake":"5389306966104875890791791868623"},"created_at":"2021-03-19T17:11:55.331481Z"},{"id":632,"scope":"staking","action":"left_active_set","block_height":32457053,"block_time":"2021-03-18T17:04:25.978559Z","epoch":"78ZKAwxLABgFwUXxTFPjSuvHetJJXEh58iYCenr75rUN","item_id":"jazza.poolv1.near","item_type":"validator","metadata":{"stake":"3225288186120652960537747109403"},"created_at":"2021-03-18T17:05:40.474446Z"},{"id":631,"scope":"staking","action":"left_active_set","block_height":32457053,"block_time":"2021-03-18T17:04:25.978559Z","epoch":"78ZKAwxLABgFwUXxTFPjSuvHetJJXEh58iYCenr75rUN","item_id":"cryptium.poolv1.near","item_type":"validator","metadata":{"stake":"5389479989855494538500766791502"},"created_at":"2021-03-18T17:05:40.474435Z"},{"id":630,"scope":"staking","action":"joined_active_set","block_height":32457053,"block_time":"2021-03-18T17:04:25.978559Z","epoch":"78ZKAwxLABgFwUXxTFPjSuvHetJJXEh58iYCenr75rUN","item_id":"magic.poolv1.near","item_type":"validator","metadata":{"stake":"10744216249394462768473850300943"},"created_at":"2021-03-18T17:05:40.474412Z"},{"id":629,"scope":"staking","action":"kicked","block_height":32457053,"block_time":"2021-03-18T17:04:25.978559Z","epoch":"78ZKAwxLABgFwUXxTFPjSuvHetJJXEh58iYCenr75rUN","item_id":"cryptium.poolv1.near","item_type":"validator","metadata":{"expected":432,"produced":0,"reason":"not_enough_blocks"},"created_at":"2021-03-18T17:05:40.293855Z"},{"id":628,"scope":"staking","action":"kicked","block_height":32413853,"block_time":"2021-03-18T03:39:24.670707Z","epoch":"AzQ1nxKvpFpfv9hesHyGVgSdZWGtTwXHmyTRmCnqE6hw","item_id":"jazza.poolv1.near","item_type":"validator","metadata":{"reason":"not_enough_stake","stake":"3225809752255023718848414897979","threshold":"3226886477524257148285502580242"},"created_at":"2021-03-18T03:40:30.687352Z"},{"id":627,"scope":"staking","action":"kicked","block_height":32413853,"block_time":"2021-03-18T03:39:24.670707Z","epoch":"AzQ1nxKvpFpfv9hesHyGVgSdZWGtTwXHmyTRmCnqE6hw","item_id":"cryptium.poolv1.near","item_type":"validator","metadata":{"expected":432,"produced":199,"reason":"not_enough_blocks"},"created_at":"2021-03-18T03:40:30.687349Z"},{"id":626,"scope":"staking","action":"left_active_set","block_height":32370653,"block_time":"2021-03-17T14:46:02.269888Z","epoch":"7AKnkeBwLYginLUA44ZQUUN8cqXRnW1sGf52i68cGkAN","item_id":"magic.poolv1.near","item_type":"validator","metadata":{"stake":"10744216247913509065212850300943"},"created_at":"2021-03-17T14:47:09.409184Z"},{"id":625,"scope":"staking","action":"joined_active_set","block_height":32370653,"block_time":"2021-03-17T14:46:02.269888Z","epoch":"7AKnkeBwLYginLUA44ZQUUN8cqXRnW1sGf52i68cGkAN","item_id":"jazza.poolv1.near","item_type":"validator","metadata":{"stake":"3225288186120652960537747109403"},"created_at":"2021-03-17T14:47:09.409141Z"},{"id":624,"scope":"staking","action":"kicked","block_height":32370653,"block_time":"2021-03-17T14:46:02.269888Z","epoch":"7AKnkeBwLYginLUA44ZQUUN8cqXRnW1sGf52i68cGkAN","item_id":"magic.poolv1.near","item_type":"validator","metadata":{"expected":1296,"produced":0,"reason":"not_enough_blocks"},"created_at":"2021-03-17T14:47:09.215946Z"},{"id":623,"scope":"staking","action":"kicked","block_height":32327453,"block_time":"2021-03-17T01:10:58.237524Z","epoch":"23fnUT21qMnQWKKx6FnhSAkdSGTQm6gY8VSnpUqT1X61","item_id":"magic.poolv1.near","item_type":"validator","metadata":{"expected":1296,"produced":689,"reason":"not_enough_blocks"},"created_at":"2021-03-17T01:12:05.219074Z"},{"id":622,"scope":"staking","action":"left_active_set","block_height":32241052,"block_time":"2021-03-16T00:43:42.80443Z","epoch":"4topJGNrntqaSpxb9wAnTuroFL4WFbFgscRWR9QC15J8","item_id":"jazza.poolv1.near","item_type":"validator","metadata":{"stake":"3277075737545599543519640143262"},"created_at":"2021-03-16T00:44:52.740432Z"},{"id":621,"scope":"staking","action":"left_active_set","block_height":32197852,"block_time":"2021-03-15T12:44:30.334003Z","epoch":"4PkxgbnvDQ3KccjtiwNcjU9sAwY6QPVcjGMfkSP4gUvR","item_id":"ashert.poolv1.near","item_type":"validator","metadata":{"stake":"3234040506408702916710117174519"},"created_at":"2021-03-15T12:45:39.046457Z"},{"id":620,"scope":"staking","action":"joined_active_set","block_height":32197852,"block_time":"2021-03-15T12:44:30.334003Z","epoch":"4PkxgbnvDQ3KccjtiwNcjU9sAwY6QPVcjGMfkSP4gUvR","item_id":"nearcrowd.poolv1.near","item_type":"validator","metadata":{"stake":"7050914483212272235467420040592"},"created_at":"2021-03-15T12:45:39.046252Z"},{"id":619,"scope":"staking","action":"joined_active_set","block_height":32197852,"block_time":"2021-03-15T12:44:30.334003Z","epoch":"4PkxgbnvDQ3KccjtiwNcjU9sAwY6QPVcjGMfkSP4gUvR","item_id":"alex.poolv1.near","item_type":"validator","metadata":{"stake":"4107603449538722650762557643908"},"created_at":"2021-03-15T12:45:39.046016Z"},{"id":618,"scope":"staking","action":"kicked","block_height":32197852,"block_time":"2021-03-15T12:44:30.334003Z","epoch":"4PkxgbnvDQ3KccjtiwNcjU9sAwY6QPVcjGMfkSP4gUvR","item_id":"jazza.poolv1.near","item_type":"validator","metadata":{"reason":"not_enough_stake","stake":"3277613623502165249843819788261","threshold":"3292135832936308539562660394639"},"created_at":"2021-03-15T12:45:38.865937Z"},{"id":617,"scope":"staking","action":"kicked","block_height":32154652,"block_time":"2021-03-15T01:04:00.514514Z","epoch":"9bm4ycd4oqb179rCWPDpL8APgFRQJYCafX34wyQAcnzu","item_id":"ashert.poolv1.near","item_type":"validator","metadata":{"reason":"not_enough_stake","stake":"3234891541203141241812557464159","threshold":"3277075737545599543519640143262"},"created_at":"2021-03-15T01:05:09.227068Z"},{"id":616,"scope":"staking","action":"joined_active_set","block_height":32111452,"block_time":"2021-03-14T13:03:17.14341Z","epoch":"71QiyfiBV4JmaGsVh2pSH7TZcQyrEtJPe1azPUsgCKdE","item_id":"jubi.poolv1.near","item_type":"validator","metadata":{"stake":"3459622514145792449326279054611"},"created_at":"2021-03-14T13:04:23.780095Z"},{"id":615,"scope":"staking","action":"left_active_set","block_height":32025052,"block_time":"2021-03-13T13:11:37.376487Z","epoch":"6m5MRtJxwkADfVZ2rYHLhaKaUEK3ptPnBaUDBZPXd1jU","item_id":"nearcrowd.poolv1.near","item_type":"validator","metadata":{"stake":"7049776474895662140643415472864"},"created_at":"2021-03-13T13:12:46.635337Z"},{"id":614,"scope":"staking","action":"left_active_set","block_height":32025052,"block_time":"2021-03-13T13:11:37.376487Z","epoch":"6m5MRtJxwkADfVZ2rYHLhaKaUEK3ptPnBaUDBZPXd1jU","item_id":"jubi.poolv1.near","item_type":"validator","metadata":{"stake":"3459706002467089950187581740153"},"created_at":"2021-03-13T13:12:46.635319Z"},{"id":613,"scope":"staking","action":"left_active_set","block_height":32025052,"block_time":"2021-03-13T13:11:37.376487Z","epoch":"6m5MRtJxwkADfVZ2rYHLhaKaUEK3ptPnBaUDBZPXd1jU","item_id":"alex.poolv1.near","item_type":"validator","metadata":{"stake":"4107361292763901473471393163786"},"created_at":"2021-03-13T13:12:46.635302Z"},{"id":612,"scope":"staking","action":"joined_active_set","block_height":32025052,"block_time":"2021-03-13T13:11:37.376487Z","epoch":"6m5MRtJxwkADfVZ2rYHLhaKaUEK3ptPnBaUDBZPXd1jU","item_id":"ashert.poolv1.near","item_type":"validator","metadata":{"stake":"3232967233641646751459042214018"},"created_at":"2021-03-13T13:12:46.63527Z"},{"id":611,"scope":"staking","action":"kicked","block_height":32025052,"block_time":"2021-03-13T13:11:37.376487Z","epoch":"6m5MRtJxwkADfVZ2rYHLhaKaUEK3ptPnBaUDBZPXd1jU","item_id":"jubi.poolv1.near","item_type":"validator","metadata":{"expected":432,"produced":0,"reason":"not_enough_blocks"},"created_at":"2021-03-13T13:12:46.438915Z"},{"id":610,"scope":"staking","action":"kicked","block_height":31981852,"block_time":"2021-03-12T23:46:21.383363Z","epoch":"6j7wvfMxPtTpswe7YQGWHDGFqRTqZEZSpqZGQBCBoSUQ","item_id":"nearcrowd.poolv1.near","item_type":"validator","metadata":{"expected":864,"produced":108,"reason":"not_enough_blocks"},"created_at":"2021-03-12T23:47:28.336631Z"},{"id":609,"scope":"staking","action":"kicked","block_height":31981852,"block_time":"2021-03-12T23:46:21.383363Z","epoch":"6j7wvfMxPtTpswe7YQGWHDGFqRTqZEZSpqZGQBCBoSUQ","item_id":"jubi.poolv1.near","item_type":"validator","metadata":{"expected":432,"produced":0,"reason":"not_enough_blocks"},"created_at":"2021-03-12T23:47:28.33663Z"},{"id":608,"scope":"staking","action":"kicked","block_height":31981852,"block_time":"2021-03-12T23:46:21.383363Z","epoch":"6j7wvfMxPtTpswe7YQGWHDGFqRTqZEZSpqZGQBCBoSUQ","item_id":"alex.poolv1.near","item_type":"validator","metadata":{"expected":432,"produced":0,"reason":"not_enough_blocks"},"created_at":"2021-03-12T23:47:28.336628Z"},{"id":607,"scope":"staking","action":"joined_active_set","block_height":31852250,"block_time":"2021-03-11T09:28:35.846878Z","epoch":"C4L7UzYHEFdk9a4ejkz4KLPbKkvSKjQAj3oFF4ZSHXLC","item_id":"binancestaking.poolv1.near","item_type":"validator","metadata":{"stake":"3500033000962188742425200000000"},"created_at":"2021-03-11T09:29:46.057616Z"},{"id":606,"scope":"staking","action":"left_active_set","block_height":31809050,"block_time":"2021-03-10T21:15:58.462688Z","epoch":"8F95tN6tHjttNEGbcHTGPD2GB9qiQsyd7HRjJYPyxsBV","item_id":"ashert.poolv1.near","item_type":"validator","metadata":{"stake":"3231932743773105950573985152252"},"created_at":"2021-03-10T21:17:03.775837Z"},{"id":605,"scope":"staking","action":"joined_active_set","block_height":31809050,"block_time":"2021-03-10T21:15:58.462688Z","epoch":"8F95tN6tHjttNEGbcHTGPD2GB9qiQsyd7HRjJYPyxsBV","item_id":"northernlights.poolv1.near","item_type":"validator","metadata":{"stake":"5528576102882674984979085596803"},"created_at":"2021-03-10T21:17:03.775803Z"},{"id":604,"scope":"staking","action":"joined_active_set","block_height":31765850,"block_time":"2021-03-10T08:40:58.993523Z","epoch":"HhEHJo1NrC6cbvw5FADGWgdDj2XPn5zfUntJK9QRS2My","item_id":"erm.poolv1.near","item_type":"validator","metadata":{"stake":"3755052582104599907411955487542"},"created_at":"2021-03-10T08:42:09.225335Z"},{"id":603,"scope":"staking","action":"kicked","block_height":31765850,"block_time":"2021-03-10T08:40:58.993523Z","epoch":"HhEHJo1NrC6cbvw5FADGWgdDj2XPn5zfUntJK9QRS2My","item_id":"ashert.poolv1.near","item_type":"validator","metadata":{"reason":"not_enough_stake","stake":"3232463995528427849148743638489","threshold":"3256792942625091647276245606778"},"created_at":"2021-03-10T08:42:09.049786Z"},{"id":602,"scope":"staking","action":"left_active_set","block_height":31722650,"block_time":"2021-03-09T20:35:46.098111Z","epoch":"4XccYuQpVN56fmUWXQzrvHPJatpnc4KZZYBNXETy3R7f","item_id":"northernlights.poolv1.near","item_type":"validator","metadata":{"stake":"5548551100339748622002785596803"},"created_at":"2021-03-09T20:36:58.216562Z"},{"id":601,"scope":"staking","action":"left_active_set","block_height":31722650,"block_time":"2021-03-09T20:35:46.098111Z","epoch":"4XccYuQpVN56fmUWXQzrvHPJatpnc4KZZYBNXETy3R7f","item_id":"erm.poolv1.near","item_type":"validator","metadata":{"stake":"3755069224779971488331045600939"},"created_at":"2021-03-09T20:36:58.216373Z"},{"id":600,"scope":"staking","action":"joined_active_set","block_height":31722650,"block_time":"2021-03-09T20:35:46.098111Z","epoch":"4XccYuQpVN56fmUWXQzrvHPJatpnc4KZZYBNXETy3R7f","item_id":"ashert.poolv1.near","item_type":"validator","metadata":{"stake":"3226922743193021205243385152252"},"created_at":"2021-03-09T20:36:58.216162Z"},{"id":599,"scope":"staking","action":"kicked","block_height":31722650,"block_time":"2021-03-09T20:35:46.098111Z","epoch":"4XccYuQpVN56fmUWXQzrvHPJatpnc4KZZYBNXETy3R7f","item_id":"northernlights.poolv1.near","item_type":"validator","metadata":{"expected":432,"produced":235,"reason":"not_enough_blocks"},"created_at":"2021-03-09T20:36:57.998069Z"},{"id":598,"scope":"staking","action":"kicked","block_height":31679450,"block_time":"2021-03-09T07:49:18.06794Z","epoch":"9nvq6cPmk8aqR7n5TMG18DhyVuFpUUUk6HZyyHQZVWkM","item_id":"northernlights.poolv1.near","item_type":"validator","metadata":{"expected":432,"produced":309,"reason":"not_enough_blocks"},"created_at":"2021-03-09T07:50:29.956044Z"},{"id":597,"scope":"staking","action":"kicked","block_height":31679450,"block_time":"2021-03-09T07:49:18.06794Z","epoch":"9nvq6cPmk8aqR7n5TMG18DhyVuFpUUUk6HZyyHQZVWkM","item_id":"erm.poolv1.near","item_type":"validator","metadata":{"expected":432,"produced":375,"reason":"not_enough_blocks"},"created_at":"2021-03-09T07:50:29.956041Z"},{"id":596,"scope":"staking","action":"joined_active_set","block_height":31636250,"block_time":"2021-03-08T18:40:38.474092Z","epoch":"FrH6RNyuhDhHDXZoyXFeztEsZ5d5d46tuSd9JbQcbJsg","item_id":"appload.poolv1.near","item_type":"validator","metadata":{"stake":"3756303186113851307973136921793"},"created_at":"2021-03-08T18:41:47.936172Z"},{"id":595,"scope":"staking","action":"left_active_set","block_height":31593050,"block_time":"2021-03-08T05:25:05.368611Z","epoch":"CSQHFEuPjs6tZVjKniUpgPBkyHAwqASB9Cfx9NHvB6ZA","item_id":"appload.poolv1.near","item_type":"validator","metadata":{"stake":"3756602184578654674761536921793"},"created_at":"2021-03-08T05:26:18.102176Z"},{"id":594,"scope":"staking","action":"kicked","block_height":31549850,"block_time":"2021-03-07T16:14:16.653745Z","epoch":"HpChNFRnZVtqr7gp1fuCTwS2iQ4hyoRQfXAeBq9Ha1oj","item_id":"appload.poolv1.near","item_type":"validator","metadata":{"expected":432,"produced":356,"reason":"not_enough_blocks"},"created_at":"2021-03-07T16:15:28.490203Z"},{"id":593,"scope":"staking","action":"left_active_set","block_height":31333850,"block_time":"2021-03-04T21:37:25.490768Z","epoch":"G6tSFxvxwqF5fsEu2LYU3rdofiLPQFBQeK9NsHZzE13G","item_id":"ashert.poolv1.near","item_type":"validator","metadata":{"stake":"3230868161265440675873848520238"},"created_at":"2021-03-04T21:38:33.121714Z"},{"id":592,"scope":"staking","action":"joined_active_set","block_height":31333850,"block_time":"2021-03-04T21:37:25.490768Z","epoch":"G6tSFxvxwqF5fsEu2LYU3rdofiLPQFBQeK9NsHZzE13G","item_id":"audit_one.poolv1.near","item_type":"validator","metadata":{"stake":"3624941197686587022957114817652"},"created_at":"2021-03-04T21:38:33.12167Z"},{"id":591,"scope":"staking","action":"left_active_set","block_height":31290650,"block_time":"2021-03-04T08:14:04.959299Z","epoch":"B6iND97rx6ouue945RePrRoKTcUARzf7jd7Zq6cjoGXK","item_id":"artemis.poolv1.near","item_type":"validator","metadata":{"stake":"3154611437430098868806348962188"},"created_at":"2021-03-04T08:15:14.288905Z"},{"id":590,"scope":"staking","action":"joined_active_set","block_height":31290650,"block_time":"2021-03-04T08:14:04.959299Z","epoch":"B6iND97rx6ouue945RePrRoKTcUARzf7jd7Zq6cjoGXK","item_id":"magic.poolv1.near","item_type":"validator","metadata":{"stake":"10704196496113006894636448861221"},"created_at":"2021-03-04T08:15:14.288877Z"},{"id":589,"scope":"staking","action":"kicked","block_height":31290650,"block_time":"2021-03-04T08:14:04.959299Z","epoch":"B6iND97rx6ouue945RePrRoKTcUARzf7jd7Zq6cjoGXK","item_id":"ashert.poolv1.near","item_type":"validator","metadata":{"reason":"not_enough_stake","stake":"3231404469168620742036737262120","threshold":"3263017970235417980444768507240"},"created_at":"2021-03-04T08:15:14.09079Z"}]}'
  recorded_at: Thu, 01 Apr 2021 21:53:15 GMT
recorded_with: VCR 6.0.0
